,Vessel Name,Port Call Type,Port Type,Current Port,Ata/atd,Voyage origin port,Leg start Port/anch,In Transit Port calls
0,MATSYA VARSHINI,ARRIVAL,Port,KOCHI,2019-03-31 06:50 LT  (UTC +5),COCHIN ANCH,COCHIN ANCH,Not in Transit
1,SEVEN SEAS NAVIGATOR,ARRIVAL,Port,KOCHI,2019-03-31 06:42 LT  (UTC +5),THILAWA,THILAWA,Not in Transit
2,MFV LAVANIKA,ARRIVAL,Port,KOCHI,2019-03-31 06:30 LT  (UTC +5),COCHIN ANCH,COCHIN ANCH,Not in Transit
3,DEEPAM 3,DEPARTURE,Port,KOCHI,2019-03-31 06:19 LT  (UTC +5),-,-,Not in Transit
4,LAKSHADWEEP SEA,ARRIVAL,Port,KOCHI,2019-03-31 05:58 LT  (UTC +5),KOCHI,KOCHI,Not in Transit
5,SHALOM JUSTIN,ARRIVAL,Port,KOCHI,2019-03-31 05:47 LT  (UTC +5),KOCHI,KOCHI,Not in Transit
6,FOUR STAR I,ARRIVAL,Port,KOCHI,2019-03-31 02:40 LT  (UTC +5),KOCHI,KOCHI,Not in Transit
7,BHARAT C 9,ARRIVAL,Port,KOCHI,2019-03-31 01:56 LT  (UTC +5),COCHIN ANCH,COCHIN ANCH,Not in Transit
8,SEVENSTAR VI,ARRIVAL,Port,KOCHI,2019-03-30 23:29 LT  (UTC +5),KOCHI,KOCHI,Not in Transit
9,FOUR STAR I,DEPARTURE,Port,KOCHI,2019-03-30 22:00 LT  (UTC +5),-,-,Not in Transit
10,SEVENSTAR VI,DEPARTURE,Port,KOCHI,2019-03-30 20:25 LT  (UTC +5),-,-,Not in Transit
11,NEFERTITI,ARRIVAL,Port,KOCHI,2019-03-30 19:02 LT  (UTC +5),KOCHI,KOCHI,Not in Transit
12,SAMUDRA SHAUDHIKAMA,DEPARTURE,Port,KOCHI,2019-03-30 18:33 LT  (UTC +5),-,-,Not in Transit
13,DEEPAM 3,ARRIVAL,Port,KOCHI,2019-03-30 18:24 LT  (UTC +5),KOCHI,KOCHI,Not in Transit
14,ARABIAN SEA,DEPARTURE,Port,KOCHI,2019-03-30 17:51 LT  (UTC +5),-,-,Not in Transit
15,DCI DREDGE XV,DEPARTURE,Port,KOCHI,2019-03-30 17:45 LT  (UTC +5),-,-,Not in Transit
16,DCI DREDGE VIII,DEPARTURE,Port,KOCHI,2019-03-30 17:02 LT  (UTC +5),-,-,Not in Transit
17,NAUMA,ARRIVAL,Port,KOCHI,2019-03-30 16:51 LT  (UTC +5),KATTUPALLI,KATTUPALLI,Not in Transit
18,SHM12,DEPARTURE,Port,KOCHI,2019-03-30 16:44 LT  (UTC +5),-,-,Not in Transit
19,DCI DREDGE XV,ARRIVAL,Port,KOCHI,2019-03-30 16:07 LT  (UTC +5),COCHIN ANCH,COCHIN ANCH,Not in Transit
0,DEEPAM 3,DEPARTURE,Port,KOCHI,2019-03-30 16:00 LT  (UTC +5),-,-,Not in Transit
1,DCI DREDGE VIII,ARRIVAL,Port,KOCHI,2019-03-30 15:30 LT  (UTC +5),COCHIN ANCH,COCHIN ANCH,Not in Transit
2,NEFERTITI,DEPARTURE,Port,KOCHI,2019-03-30 15:22 LT  (UTC +5),-,-,Not in Transit
3,DEEPAM 3,ARRIVAL,Port,KOCHI,2019-03-30 13:35 LT  (UTC +5),KOCHI,KOCHI,Not in Transit
4,DCI DREDGE XV,DEPARTURE,Port,KOCHI,2019-03-30 13:28 LT  (UTC +5),-,-,Not in Transit
5,DESH PREM,DEPARTURE,Port,KOCHI,2019-03-30 12:56 LT  (UTC +5),-,-,Not in Transit
6,DEEPAM 3,DEPARTURE,Port,KOCHI,2019-03-30 12:45 LT  (UTC +5),-,-,Not in Transit
7,SEVENSTAR VI,ARRIVAL,Port,KOCHI,2019-03-30 12:20 LT  (UTC +5),KOCHI,KOCHI,Not in Transit
8,DCI DREDGE XV,ARRIVAL,Port,KOCHI,2019-03-30 12:13 LT  (UTC +5),COCHIN ANCH,COCHIN ANCH,Not in Transit
9,NEHRU SHATABDI,ARRIVAL,Port,KOCHI,2019-03-30 11:29 LT  (UTC +5),KOCHI,KOCHI,Not in Transit
10,ARABIAN SEA,ARRIVAL,Port,KOCHI,2019-03-30 11:02 LT  (UTC +5),KOCHI,KOCHI,Not in Transit
11,NEHRU SHATABDI,DEPARTURE,Port,KOCHI,2019-03-30 10:58 LT  (UTC +5),-,-,Not in Transit
12,DEEPAM 3,ARRIVAL,Port,KOCHI,2019-03-30 10:09 LT  (UTC +5),COCHIN ANCH,COCHIN ANCH,Not in Transit
13,SSL BRAHMAPUTRA,ARRIVAL,Port,KOCHI,2019-03-30 10:01 LT  (UTC +5),MUNDRA,MUNDRA,Not in Transit
14,DCI DREDGE XV,DEPARTURE,Port,KOCHI,2019-03-30 09:39 LT  (UTC +5),-,-,In Transit
15,DEEPAM 3,DEPARTURE,Port,KOCHI,2019-03-30 08:54 LT  (UTC +5),-,-,In Transit
16,DCI DREDGE XV,ARRIVAL,Port,KOCHI,2019-03-30 08:50 LT  (UTC +5),COCHIN ANCH,COCHIN ANCH,In Transit
17,SHM12,ARRIVAL,Port,KOCHI,2019-03-30 08:45 LT  (UTC +5),KOCHI,KOCHI,Not in Transit
18,DCI DREDGE VIII,DEPARTURE,Port,KOCHI,2019-03-30 08:43 LT  (UTC +5),-,-,Not in Transit
19,LAGOONS,ARRIVAL,Port,KOCHI,2019-03-30 08:34 LT  (UTC +5),KOCHI,KOCHI,Not in Transit
0,DEEPAM 3,ARRIVAL,Port,KOCHI,2019-03-30 07:54 LT  (UTC +5),COCHIN ANCH,COCHIN ANCH,In Transit
1,MIIKE,ARRIVAL,Port,KOCHI,2019-03-30 07:53 LT  (UTC +5),NAGOYA,SINGAPORE ANCH,Not in Transit
2,THINNAKARA,ARRIVAL,Port,KOCHI,2019-03-30 07:27 LT  (UTC +5),BEYPORE,COCHIN ANCH,Not in Transit
3,BHARAT C 9,DEPARTURE,Port,KOCHI,2019-03-30 07:10 LT  (UTC +5),-,-,Not in Transit
4,DCI DREDGE VIII,ARRIVAL,Port,KOCHI,2019-03-30 07:08 LT  (UTC +5),COCHIN ANCH,COCHIN ANCH,Not in Transit
5,SEVENSTAR VI,DEPARTURE,Port,KOCHI,2019-03-30 06:47 LT  (UTC +5),-,-,Not in Transit
6,DEEPAM 3,DEPARTURE,Port,KOCHI,2019-03-30 06:36 LT  (UTC +5),-,-,In Transit
7,FOUR STAR I,ARRIVAL,Port,KOCHI,2019-03-30 05:10 LT  (UTC +5),KOCHI,KOCHI,Not in Transit
8,DEEPAM 3,ARRIVAL,Port,KOCHI,2019-03-30 03:31 LT  (UTC +5),COCHIN ANCH,COCHIN ANCH,In Transit
9,AL KHARJ,DEPARTURE,Port,KOCHI,2019-03-30 02:48 LT  (UTC +5),-,-,Not in Transit
10,OCEAN PIONEER,ARRIVAL,Port,KOCHI,2019-03-30 02:27 LT  (UTC +5),COCHIN ANCH,COCHIN ANCH,Not in Transit
11,DEEPAM 3,DEPARTURE,Port,KOCHI,2019-03-30 01:57 LT  (UTC +5),-,-,Not in Transit
12,FOUR STAR I,DEPARTURE,Port,KOCHI,2019-03-30 00:17 LT  (UTC +5),-,-,Not in Transit
13,OCEAN PIONEER,DEPARTURE,Port,KOCHI,2019-03-29 22:28 LT  (UTC +5),-,-,Not in Transit
14,SHAMMAH,DEPARTURE,Port,KOCHI,2019-03-29 22:24 LT  (UTC +5),-,-,Not in Transit
15,ST.SA 6468,ARRIVAL,Port,KOCHI,2019-03-29 20:25 LT  (UTC +5),-,-,Not in Transit
16,JESUS LOVE,DEPARTURE,Port,KOCHI,2019-03-29 20:24 LT  (UTC +5),-,-,In Transit
17,NEFERTITI,ARRIVAL,Port,KOCHI,2019-03-29 20:16 LT  (UTC +5),KOCHI,KOCHI,Not in Transit
18,DCI DREDGE VIII,DEPARTURE,Port,KOCHI,2019-03-29 19:17 LT  (UTC +5),-,-,Not in Transit
19,LAKSHADWEEP SEA,DEPARTURE,Port,KOCHI,2019-03-29 18:50 LT  (UTC +5),-,-,Not in Transit
0,SHM12,DEPARTURE,Port,KOCHI,2019-03-29 18:47 LT  (UTC +5),-,-,Not in Transit
1,AMSTERDAM,DEPARTURE,Port,KOCHI,2019-03-29 18:19 LT  (UTC +5),-,-,Not in Transit
2,NEFERTITI,DEPARTURE,Port,KOCHI,2019-03-29 17:58 LT  (UTC +5),-,-,Not in Transit
3,LITTLE FLOWER B,ARRIVAL,Port,KOCHI,2019-03-29 17:53 LT  (UTC +5),KOCHI,KOCHI,Not in Transit
4,DCI DREDGE XV,DEPARTURE,Port,KOCHI,2019-03-29 17:27 LT  (UTC +5),-,-,In Transit
5,DCI DREDGE XV,ARRIVAL,Port,KOCHI,2019-03-29 17:14 LT  (UTC +5),KOCHI,KOCHI,In Transit
6,DEEPAM 3,ARRIVAL,Port,KOCHI,2019-03-29 17:07 LT  (UTC +5),KOCHI,KOCHI,Not in Transit
7,AL KHARJ,ARRIVAL,Port,KOCHI,2019-03-29 17:03 LT  (UTC +5),COLOMBO,COLOMBO,Not in Transit
8,DCI DREDGE VIII,ARRIVAL,Port,KOCHI,2019-03-29 16:43 LT  (UTC +5),KOCHI,KOCHI,Not in Transit
9,SEVENSTAR VI,ARRIVAL,Port,KOCHI,2019-03-29 16:29 LT  (UTC +5),KOCHI,KOCHI,Not in Transit
10,PRASHIKSHANI,ARRIVAL,Port,KOCHI,2019-03-29 15:30 LT  (UTC +5),KOCHI,KOCHI,Not in Transit
11,DEEPAM 3,DEPARTURE,Port,KOCHI,2019-03-29 15:27 LT  (UTC +5),-,-,Not in Transit
12,KAVARATTI,DEPARTURE,Port,KOCHI,2019-03-29 14:41 LT  (UTC +5),-,-,Not in Transit
13,DCI DREDGE VIII,DEPARTURE,Port,KOCHI,2019-03-29 13:24 LT  (UTC +5),-,-,Not in Transit
14,DCI DREDGE XV,DEPARTURE,Port,KOCHI,2019-03-29 12:55 LT  (UTC +5),-,-,Not in Transit
15,DCI DREDGE VIII,ARRIVAL,Port,KOCHI,2019-03-29 12:52 LT  (UTC +5),KOCHI,KOCHI,Not in Transit
16,INDIANWARSHIP P57,DEPARTURE,Port,KOCHI,2019-03-29 12:36 LT  (UTC +5),-,-,Not in Transit
17,WARSHIP 072,DEPARTURE,Port,KOCHI,2019-03-29 12:04 LT  (UTC +5),-,-,Not in Transit
18,SAR 419000240,ARRIVAL,Port,KOCHI,2019-03-29 11:52 LT  (UTC +5),KOCHI,KOCHI,Not in Transit
19,KB 11,DEPARTURE,Port,KOCHI,2019-03-29 11:48 LT  (UTC +5),-,-,Not in Transit
0,DCI DREDGE XV,ARRIVAL,Port,KOCHI,2019-03-29 11:47 LT  (UTC +5),COCHIN ANCH,COCHIN ANCH,Not in Transit
1,SEVENSTAR VI,DEPARTURE,Port,KOCHI,2019-03-29 11:35 LT  (UTC +5),-,-,In Transit
2,NEHRU SHATABDI,ARRIVAL,Port,KOCHI,2019-03-29 10:55 LT  (UTC +5),KOCHI,KOCHI,Not in Transit
3,DEEPAM 3,ARRIVAL,Port,KOCHI,2019-03-29 10:33 LT  (UTC +5),COCHIN ANCH,COCHIN ANCH,Not in Transit
4,K.B. VII,DEPARTURE,Port,KOCHI,2019-03-29 10:21 LT  (UTC +5),-,-,Not in Transit
5,NEHRU SHATABDI,DEPARTURE,Port,KOCHI,2019-03-29 10:04 LT  (UTC +5),-,-,Not in Transit
6,PAMBA 1,DEPARTURE,Port,KOCHI,2019-03-29 09:51 LT  (UTC +5),-,-,Not in Transit
7,DEEPAM 3,DEPARTURE,Port,KOCHI,2019-03-29 09:40 LT  (UTC +5),-,-,Not in Transit
8,SAR 419000009,DEPARTURE,Port,KOCHI,2019-03-29 09:39 LT  (UTC +5),-,-,Not in Transit
9,SRI RANGA,ARRIVAL,Port,KOCHI,2019-03-29 09:27 LT  (UTC +5),-,-,In Transit
10,DCI DREDGE XV,DEPARTURE,Port,KOCHI,2019-03-29 09:20 LT  (UTC +5),-,-,In Transit
11,DCI DREDGE VIII,DEPARTURE,Port,KOCHI,2019-03-29 09:13 LT  (UTC +5),-,-,Not in Transit
12,FOUR STAR I,ARRIVAL,Port,KOCHI,2019-03-29 09:02 LT  (UTC +5),COCHIN ANCH,COCHIN ANCH,Not in Transit
13,DCI DREDGE XV,ARRIVAL,Port,KOCHI,2019-03-29 08:30 LT  (UTC +5),COCHIN ANCH,COCHIN ANCH,In Transit
14,K.B. VII,ARRIVAL,Port,KOCHI,2019-03-29 07:57 LT  (UTC +5),KOCHI,KOCHI,Not in Transit
15,DCI DREDGE VIII,ARRIVAL,Port,KOCHI,2019-03-29 07:38 LT  (UTC +5),COCHIN ANCH,COCHIN ANCH,Not in Transit
16,DCI DREDGE VI,ARRIVAL,Port,KOCHI,2019-03-29 06:34 LT  (UTC +5),KOCHI,KOCHI,Not in Transit
17,GREAT SEA VEMBANAD,DEPARTURE,Port,KOCHI,2019-03-29 06:29 LT  (UTC +5),-,-,Not in Transit
18,DCI DREDGE XI,ARRIVAL,Port,KOCHI,2019-03-29 05:51 LT  (UTC +5),KOCHI,KOCHI,Not in Transit
19,DEEPAM 3,ARRIVAL,Port,KOCHI,2019-03-29 05:46 LT  (UTC +5),KOCHI,KOCHI,Not in Transit
0,AMSTERDAM,ARRIVAL,Port,KOCHI,2019-03-29 05:41 LT  (UTC +5),COLOMBO,COLOMBO,Not in Transit
1,SAR 419000240,DEPARTURE,Port,KOCHI,2019-03-29 05:17 LT  (UTC +5),-,-,Not in Transit
