,Vessel Name,Port Call Type,Port Type,Current Port,Ata/atd,Voyage origin port,Leg start Port/anch,In Transit Port calls
0,FOUR STAR I,ARRIVAL,Port,KOCHI,2019-04-01 18:30 LT  (UTC +5),KOCHI,KOCHI,Not in Transit
1,DEEPAM 3,ARRIVAL,Port,KOCHI,2019-04-01 17:06 LT  (UTC +5),KOCHI,KOCHI,Not in Transit
2,MAERSK AVON,ARRIVAL,Port,KOCHI,2019-04-01 16:59 LT  (UTC +5),COLOMBO,COLOMBO,Not in Transit
3,DCI DREDGE XV,DEPARTURE,Port,KOCHI,2019-04-01 16:56 LT  (UTC +5),-,-,Not in Transit
4,DEEPAM 3,DEPARTURE,Port,KOCHI,2019-04-01 16:44 LT  (UTC +5),-,-,Not in Transit
5,YAHOVA NICY,DEPARTURE,Port,KOCHI,2019-04-01 16:06 LT  (UTC +5),-,-,Not in Transit
6,DCI DREDGE XV,ARRIVAL,Port,KOCHI,2019-04-01 15:30 LT  (UTC +5),COCHIN ANCH,COCHIN ANCH,Not in Transit
7,IN WARSHIP J22,ARRIVAL,Port,KOCHI,2019-04-01 15:12 LT  (UTC +5),KOCHI,KOCHI,Not in Transit
8,LAGOONS,DEPARTURE,Port,KOCHI,2019-04-01 15:04 LT  (UTC +5),-,-,Not in Transit
9,C 446,ARRIVAL,Port,KOCHI,2019-04-01 14:59 LT  (UTC +5),MANGALORE,MANGALORE,Not in Transit
10,C 444,ARRIVAL,Port,KOCHI,2019-04-01 14:57 LT  (UTC +5),MANGALORE,MANGALORE,Not in Transit
11,ARABIAN SEA,DEPARTURE,Port,KOCHI,2019-04-01 14:50 LT  (UTC +5),-,-,Not in Transit
12,YAHOVA NICY,ARRIVAL,Port,KOCHI,2019-04-01 13:39 LT  (UTC +5),KOCHI,KOCHI,Not in Transit
13,FOUR STAR I,DEPARTURE,Port,KOCHI,2019-04-01 13:26 LT  (UTC +5),-,-,Not in Transit
14,SAR 419000056,ARRIVAL,Port,KOCHI,2019-04-01 13:06 LT  (UTC +5),-,-,Not in Transit
15,WARSHIP P56,ARRIVAL,Port,KOCHI,2019-04-01 13:01 LT  (UTC +5),KOCHI,KOCHI,Not in Transit
16,DCI DREDGE XV,DEPARTURE,Port,KOCHI,2019-04-01 12:57 LT  (UTC +5),-,-,In Transit
17,WARSHIP P56,DEPARTURE,Port,KOCHI,2019-04-01 12:57 LT  (UTC +5),-,-,Not in Transit
18,DCI DREDGE XV,ARRIVAL,Port,KOCHI,2019-04-01 12:37 LT  (UTC +5),COCHIN ANCH,COCHIN ANCH,In Transit
19,SHM12,ARRIVAL,Port,KOCHI,2019-04-01 12:09 LT  (UTC +5),KOCHI,KOCHI,Not in Transit
0,ALS CLIVIA,ARRIVAL,Port,KOCHI,2019-04-01 12:05 LT  (UTC +5),COLOMBO,COLOMBO,Not in Transit
1,DEEPAM 3,ARRIVAL,Port,KOCHI,2019-04-01 12:04 LT  (UTC +5),KOCHI,KOCHI,Not in Transit
2,NEHRU SHATABDI,ARRIVAL,Port,KOCHI,2019-04-01 11:20 LT  (UTC +5),KOCHI,KOCHI,Not in Transit
3,DEEPAM 3,DEPARTURE,Port,KOCHI,2019-04-01 10:57 LT  (UTC +5),-,-,Not in Transit
4,NEHRU SHATABDI,DEPARTURE,Port,KOCHI,2019-04-01 10:38 LT  (UTC +5),-,-,Not in Transit
5,DCI DREDGE XV,DEPARTURE,Port,KOCHI,2019-04-01 10:10 LT  (UTC +5),-,-,Not in Transit
6,SAR 419000240,ARRIVAL,Port,KOCHI,2019-04-01 09:55 LT  (UTC +5),KOCHI,KOCHI,Not in Transit
7,IN WARSHIP J22,DEPARTURE,Port,KOCHI,2019-04-01 09:36 LT  (UTC +5),-,-,Not in Transit
8,SAR 419000056,DEPARTURE,Port,KOCHI,2019-04-01 09:36 LT  (UTC +5),-,-,In Transit
9,DCI DREDGE XV,ARRIVAL,Port,KOCHI,2019-04-01 09:19 LT  (UTC +5),COCHIN ANCH,COCHIN ANCH,Not in Transit
10,SEVENSTAR VI,ARRIVAL,Port,KOCHI,2019-04-01 08:03 LT  (UTC +5),KOCHI,KOCHI,Not in Transit
11,SUN PLOEG,ARRIVAL,Port,KOCHI,2019-04-01 07:41 LT  (UTC +5),RANPAR,COCHIN ANCH,Not in Transit
12,DEEPAM 3,ARRIVAL,Port,KOCHI,2019-04-01 07:35 LT  (UTC +5),KOCHI,KOCHI,Not in Transit
13,DEEPAM 3,DEPARTURE,Port,KOCHI,2019-04-01 07:16 LT  (UTC +5),-,-,In Transit
14,SHM12,DEPARTURE,Port,KOCHI,2019-04-01 06:53 LT  (UTC +5),-,-,Not in Transit
15,K.B. VII,DEPARTURE,Port,KOCHI,2019-04-01 06:52 LT  (UTC +5),-,-,Not in Transit
16,SAR 419000240,DEPARTURE,Port,KOCHI,2019-04-01 06:22 LT  (UTC +5),-,-,Not in Transit
17,DCI DREDGE VIII,ARRIVAL,Port,KOCHI,2019-04-01 05:40 LT  (UTC +5),COCHIN ANCH,COCHIN ANCH,Not in Transit
18,DEEPAM 3,ARRIVAL,Port,KOCHI,2019-04-01 04:36 LT  (UTC +5),KOCHI,KOCHI,In Transit
19,DEEPAM 3,DEPARTURE,Port,KOCHI,2019-04-01 04:12 LT  (UTC +5),-,-,In Transit
0,TCI VIJAY,DEPARTURE,Port,KOCHI,2019-04-01 04:06 LT  (UTC +5),-,-,Not in Transit
1,DEEPAM 3,ARRIVAL,Port,KOCHI,2019-04-01 02:46 LT  (UTC +5),KOCHI,KOCHI,In Transit
2,K.B. VII,ARRIVAL,Port,KOCHI,2019-04-01 02:43 LT  (UTC +5),KOCHI,KOCHI,Not in Transit
3,EVER DELIGHT,DEPARTURE,Port,KOCHI,2019-04-01 02:20 LT  (UTC +5),-,-,Not in Transit
4,DEEPAM 3,DEPARTURE,Port,KOCHI,2019-04-01 02:10 LT  (UTC +5),-,-,In Transit
5,SEVENSTAR VI,DEPARTURE,Port,KOCHI,2019-04-01 00:16 LT  (UTC +5),-,-,Not in Transit
6,DEEPAM 3,ARRIVAL,Port,KOCHI,2019-03-31 23:45 LT  (UTC +5),KOCHI,KOCHI,In Transit
7,MISTICAL ROSE,DEPARTURE,Port,KOCHI,2019-03-31 23:28 LT  (UTC +5),-,-,Not in Transit
8,PENNA SURAKSHA,DEPARTURE,Port,KOCHI,2019-03-31 23:15 LT  (UTC +5),-,-,Not in Transit
9,DEEPAM 3,DEPARTURE,Port,KOCHI,2019-03-31 23:12 LT  (UTC +5),-,-,Not in Transit
10,NAUMA,DEPARTURE,Port,KOCHI,2019-03-31 23:02 LT  (UTC +5),-,-,Not in Transit
11,FOUR STAR I,ARRIVAL,Port,KOCHI,2019-03-31 21:05 LT  (UTC +5),KOCHI,KOCHI,Not in Transit
12,DEEPAM 3,ARRIVAL,Port,KOCHI,2019-03-31 18:47 LT  (UTC +5),KOCHI,KOCHI,Not in Transit
13,NEFERTITI,ARRIVAL,Port,KOCHI,2019-03-31 18:39 LT  (UTC +5),KOCHI,KOCHI,Not in Transit
14,SEVEN SEAS NAVIGATOR,DEPARTURE,Port,KOCHI,2019-03-31 18:23 LT  (UTC +5),-,-,Not in Transit
15,DEEPAM 3,DEPARTURE,Port,KOCHI,2019-03-31 18:14 LT  (UTC +5),-,-,Not in Transit
16,DCI DREDGE VIII,DEPARTURE,Port,KOCHI,2019-03-31 17:32 LT  (UTC +5),-,-,Not in Transit
17,DCI DREDGE XV,DEPARTURE,Port,KOCHI,2019-03-31 16:38 LT  (UTC +5),-,-,Not in Transit
18,FOUR STAR I,DEPARTURE,Port,KOCHI,2019-03-31 16:30 LT  (UTC +5),-,-,Not in Transit
19,SEVENSTAR VI,ARRIVAL,Port,KOCHI,2019-03-31 16:08 LT  (UTC +5),KOCHI,KOCHI,Not in Transit
0,DCI DREDGE VIII,ARRIVAL,Port,KOCHI,2019-03-31 16:06 LT  (UTC +5),COCHIN ANCH,COCHIN ANCH,Not in Transit
1,PARALI,ARRIVAL,Port,KOCHI,2019-03-31 15:45 LT  (UTC +5),KOCHI,KOCHI,Not in Transit
2,DCI DREDGE XV,ARRIVAL,Port,KOCHI,2019-03-31 15:26 LT  (UTC +5),COCHIN ANCH,COCHIN ANCH,Not in Transit
3,NEFERTITI,DEPARTURE,Port,KOCHI,2019-03-31 14:44 LT  (UTC +5),-,-,Not in Transit
4,ARABIAN SEA,ARRIVAL,Port,KOCHI,2019-03-31 14:36 LT  (UTC +5),KOCHI,KOCHI,Not in Transit
5,LAKSHADWEEP SEA,DEPARTURE,Port,KOCHI,2019-03-31 14:33 LT  (UTC +5),-,-,Not in Transit
6,DEEPAM 3,ARRIVAL,Port,KOCHI,2019-03-31 14:20 LT  (UTC +5),KOCHI,KOCHI,Not in Transit
7,EVER DELIGHT,ARRIVAL,Port,KOCHI,2019-03-31 14:06 LT  (UTC +5),JEBEL ALI,COCHIN ANCH,Not in Transit
8,VIANNICA,DEPARTURE,Port,KOCHI,2019-03-31 13:01 LT  (UTC +5),-,-,Not in Transit
9,ICGS ABHINAV,ARRIVAL,Port,KOCHI,2019-03-31 13:00 LT  (UTC +5),KOCHI,KOCHI,Not in Transit
10,DEEPAM 3,DEPARTURE,Port,KOCHI,2019-03-31 12:59 LT  (UTC +5),-,-,Not in Transit
11,DCI DREDGE XV,DEPARTURE,Port,KOCHI,2019-03-31 12:42 LT  (UTC +5),-,-,In Transit
12,DCI DREDGE XV,ARRIVAL,Port,KOCHI,2019-03-31 12:27 LT  (UTC +5),COCHIN ANCH,COCHIN ANCH,In Transit
13,DEEPAM 3,ARRIVAL,Port,KOCHI,2019-03-31 10:47 LT  (UTC +5),COCHIN ANCH,COCHIN ANCH,Not in Transit
14,TCI VIJAY,ARRIVAL,Port,KOCHI,2019-03-31 10:44 LT  (UTC +5),TUTICORIN,TUTICORIN,Not in Transit
15,CG 253,DEPARTURE,Port,KOCHI,2019-03-31 10:35 LT  (UTC +5),-,-,Not in Transit
16,DCI DREDGE XV,DEPARTURE,Port,KOCHI,2019-03-31 10:05 LT  (UTC +5),-,-,In Transit
17,SEVENSTAR VI,DEPARTURE,Port,KOCHI,2019-03-31 10:05 LT  (UTC +5),-,-,Not in Transit
18,DEEPAM 3,DEPARTURE,Port,KOCHI,2019-03-31 09:51 LT  (UTC +5),-,-,In Transit
19,DEEPAM 3,ARRIVAL,Port,KOCHI,2019-03-31 09:17 LT  (UTC +5),COCHIN ANCH,COCHIN ANCH,In Transit
0,DCI DREDGE XV,ARRIVAL,Port,KOCHI,2019-03-31 09:16 LT  (UTC +5),COCHIN ANCH,COCHIN ANCH,In Transit
1,DCI DREDGE VIII,DEPARTURE,Port,KOCHI,2019-03-31 09:06 LT  (UTC +5),-,-,Not in Transit
2,SSL BRAHMAPUTRA,DEPARTURE,Port,KOCHI,2019-03-31 08:40 LT  (UTC +5),-,-,Not in Transit
3,SHM12,ARRIVAL,Port,KOCHI,2019-03-31 08:40 LT  (UTC +5),KOCHI,KOCHI,Not in Transit
4,ELSHADAI,ARRIVAL,Port,KOCHI,2019-03-31 08:18 LT  (UTC +5),-,-,Not in Transit
5,CORALS,ARRIVAL,Port,KOCHI,2019-03-31 08:17 LT  (UTC +5),COCHIN ANCH,COCHIN ANCH,Not in Transit
6,SANMAR STANZA,DEPARTURE,Port,KOCHI,2019-03-31 07:50 LT  (UTC +5),-,-,Not in Transit
7,DCI DREDGE VIII,ARRIVAL,Port,KOCHI,2019-03-31 07:47 LT  (UTC +5),COCHIN ANCH,COCHIN ANCH,Not in Transit
8,LIBERTE,DEPARTURE,Port,KOCHI,2019-03-31 07:31 LT  (UTC +5),-,-,Not in Transit
9,MATSYA VARSHINI,ARRIVAL,Port,KOCHI,2019-03-31 06:50 LT  (UTC +5),COCHIN ANCH,COCHIN ANCH,Not in Transit
10,SEVEN SEAS NAVIGATOR,ARRIVAL,Port,KOCHI,2019-03-31 06:42 LT  (UTC +5),THILAWA,THILAWA,Not in Transit
11,MFV LAVANIKA,ARRIVAL,Port,KOCHI,2019-03-31 06:30 LT  (UTC +5),COCHIN ANCH,COCHIN ANCH,Not in Transit
12,DEEPAM 3,DEPARTURE,Port,KOCHI,2019-03-31 06:19 LT  (UTC +5),-,-,Not in Transit
13,LAKSHADWEEP SEA,ARRIVAL,Port,KOCHI,2019-03-31 05:58 LT  (UTC +5),KOCHI,KOCHI,Not in Transit
14,SHALOM JUSTIN,ARRIVAL,Port,KOCHI,2019-03-31 05:47 LT  (UTC +5),KOCHI,KOCHI,Not in Transit
15,FOUR STAR I,ARRIVAL,Port,KOCHI,2019-03-31 02:40 LT  (UTC +5),KOCHI,KOCHI,Not in Transit
16,BHARAT C 9,ARRIVAL,Port,KOCHI,2019-03-31 01:56 LT  (UTC +5),COCHIN ANCH,COCHIN ANCH,Not in Transit
17,SEVENSTAR VI,ARRIVAL,Port,KOCHI,2019-03-30 23:29 LT  (UTC +5),KOCHI,KOCHI,Not in Transit
18,FOUR STAR I,DEPARTURE,Port,KOCHI,2019-03-30 22:00 LT  (UTC +5),-,-,Not in Transit
19,SEVENSTAR VI,DEPARTURE,Port,KOCHI,2019-03-30 20:25 LT  (UTC +5),-,-,Not in Transit
0,NEFERTITI,ARRIVAL,Port,KOCHI,2019-03-30 19:02 LT  (UTC +5),KOCHI,KOCHI,Not in Transit
1,SAMUDRA SHAUDHIKAMA,DEPARTURE,Port,KOCHI,2019-03-30 18:33 LT  (UTC +5),-,-,Not in Transit
2,DEEPAM 3,ARRIVAL,Port,KOCHI,2019-03-30 18:24 LT  (UTC +5),KOCHI,KOCHI,Not in Transit
3,ARABIAN SEA,DEPARTURE,Port,KOCHI,2019-03-30 17:51 LT  (UTC +5),-,-,Not in Transit
4,DCI DREDGE XV,DEPARTURE,Port,KOCHI,2019-03-30 17:45 LT  (UTC +5),-,-,Not in Transit
5,ST.SAVIO,DEPARTURE,Port,KOCHI,2019-03-30 17:40 LT  (UTC +5),-,-,Not in Transit
6,DCI DREDGE VIII,DEPARTURE,Port,KOCHI,2019-03-30 17:02 LT  (UTC +5),-,-,Not in Transit
7,NAUMA,ARRIVAL,Port,KOCHI,2019-03-30 16:51 LT  (UTC +5),KATTUPALLI,KATTUPALLI,Not in Transit
8,SHM12,DEPARTURE,Port,KOCHI,2019-03-30 16:44 LT  (UTC +5),-,-,Not in Transit
9,DCI DREDGE XV,ARRIVAL,Port,KOCHI,2019-03-30 16:07 LT  (UTC +5),COCHIN ANCH,COCHIN ANCH,Not in Transit
10,DEEPAM 3,DEPARTURE,Port,KOCHI,2019-03-30 16:00 LT  (UTC +5),-,-,Not in Transit
11,DCI DREDGE VIII,ARRIVAL,Port,KOCHI,2019-03-30 15:30 LT  (UTC +5),COCHIN ANCH,COCHIN ANCH,Not in Transit
12,NEFERTITI,DEPARTURE,Port,KOCHI,2019-03-30 15:22 LT  (UTC +5),-,-,Not in Transit
13,DEEPAM 3,ARRIVAL,Port,KOCHI,2019-03-30 13:35 LT  (UTC +5),KOCHI,KOCHI,Not in Transit
14,DCI DREDGE XV,DEPARTURE,Port,KOCHI,2019-03-30 13:28 LT  (UTC +5),-,-,Not in Transit
15,DESH PREM,DEPARTURE,Port,KOCHI,2019-03-30 12:56 LT  (UTC +5),-,-,Not in Transit
16,DEEPAM 3,DEPARTURE,Port,KOCHI,2019-03-30 12:45 LT  (UTC +5),-,-,Not in Transit
17,SEVENSTAR VI,ARRIVAL,Port,KOCHI,2019-03-30 12:20 LT  (UTC +5),KOCHI,KOCHI,Not in Transit
18,DCI DREDGE XV,ARRIVAL,Port,KOCHI,2019-03-30 12:13 LT  (UTC +5),COCHIN ANCH,COCHIN ANCH,Not in Transit
19,NEHRU SHATABDI,ARRIVAL,Port,KOCHI,2019-03-30 11:29 LT  (UTC +5),KOCHI,KOCHI,Not in Transit
0,ARABIAN SEA,ARRIVAL,Port,KOCHI,2019-03-30 11:02 LT  (UTC +5),KOCHI,KOCHI,Not in Transit
1,NEHRU SHATABDI,DEPARTURE,Port,KOCHI,2019-03-30 10:58 LT  (UTC +5),-,-,Not in Transit
2,DEEPAM 3,ARRIVAL,Port,KOCHI,2019-03-30 10:09 LT  (UTC +5),COCHIN ANCH,COCHIN ANCH,Not in Transit
3,SSL BRAHMAPUTRA,ARRIVAL,Port,KOCHI,2019-03-30 10:01 LT  (UTC +5),MUNDRA,MUNDRA,Not in Transit
4,DCI DREDGE XV,DEPARTURE,Port,KOCHI,2019-03-30 09:39 LT  (UTC +5),-,-,In Transit
5,DEEPAM 3,DEPARTURE,Port,KOCHI,2019-03-30 08:54 LT  (UTC +5),-,-,In Transit
6,DCI DREDGE XV,ARRIVAL,Port,KOCHI,2019-03-30 08:50 LT  (UTC +5),COCHIN ANCH,COCHIN ANCH,In Transit
7,SHM12,ARRIVAL,Port,KOCHI,2019-03-30 08:45 LT  (UTC +5),KOCHI,KOCHI,Not in Transit
8,DCI DREDGE VIII,DEPARTURE,Port,KOCHI,2019-03-30 08:43 LT  (UTC +5),-,-,Not in Transit
9,LAGOONS,ARRIVAL,Port,KOCHI,2019-03-30 08:34 LT  (UTC +5),KOCHI,KOCHI,Not in Transit
10,DEEPAM 3,ARRIVAL,Port,KOCHI,2019-03-30 07:54 LT  (UTC +5),COCHIN ANCH,COCHIN ANCH,In Transit
11,MIIKE,ARRIVAL,Port,KOCHI,2019-03-30 07:53 LT  (UTC +5),NAGOYA,SINGAPORE ANCH,Not in Transit
12,THINNAKARA,ARRIVAL,Port,KOCHI,2019-03-30 07:27 LT  (UTC +5),BEYPORE,COCHIN ANCH,Not in Transit
13,BHARAT C 9,DEPARTURE,Port,KOCHI,2019-03-30 07:10 LT  (UTC +5),-,-,Not in Transit
14,DCI DREDGE VIII,ARRIVAL,Port,KOCHI,2019-03-30 07:08 LT  (UTC +5),COCHIN ANCH,COCHIN ANCH,Not in Transit
15,SEVENSTAR VI,DEPARTURE,Port,KOCHI,2019-03-30 06:47 LT  (UTC +5),-,-,Not in Transit
16,DEEPAM 3,DEPARTURE,Port,KOCHI,2019-03-30 06:36 LT  (UTC +5),-,-,In Transit
17,FOUR STAR I,ARRIVAL,Port,KOCHI,2019-03-30 05:10 LT  (UTC +5),KOCHI,KOCHI,Not in Transit
