,Vessel Name,Port Call Type,Port Type,Current Port,Ata/atd,Voyage origin port,Leg start Port/anch,In Transit Port calls
0,OCEAN ENDURANCE,ARRIVAL,Port,TUTICORIN,2019-04-01 17:54 LT  (UTC +5),TUTICORIN,TUTICORIN,Not in Transit
1,PERTH I,ARRIVAL,Port,TUTICORIN,2019-04-01 17:54 LT  (UTC +5),HALDIA,PARADIP ANCH,Not in Transit
2,OCEAN ENDURANCE,DEPARTURE,Port,TUTICORIN,2019-04-01 17:46 LT  (UTC +5),-,-,Not in Transit
3,PILOT TUTICORIN,ARRIVAL,Port,TUTICORIN,2019-04-01 17:44 LT  (UTC +5),TUTICORIN,TUTICORIN,Not in Transit
4,PILOT TUTICORIN,DEPARTURE,Port,TUTICORIN,2019-04-01 17:10 LT  (UTC +5),-,-,Not in Transit
5,DORISHA,DEPARTURE,Port,TUTICORIN,2019-04-01 13:18 LT  (UTC +5),-,-,Not in Transit
6,ICGS ABHIRAJ,DEPARTURE,Port,TUTICORIN,2019-04-01 12:07 LT  (UTC +5),-,-,Not in Transit
7,INS ADITYA,DEPARTURE,Port,TUTICORIN,2019-04-01 11:47 LT  (UTC +5),-,-,Not in Transit
8,RABERT NET BOAT 1,DEPARTURE,Port,TUTICORIN,2019-04-01 08:13 LT  (UTC +5),-,-,In Transit
9,RABERT NET BOAT 1,ARRIVAL,Port,TUTICORIN,2019-04-01 07:44 LT  (UTC +5),-,-,In Transit
10,SSL BRAHMAPUTRA,ARRIVAL,Port,TUTICORIN,2019-04-01 06:48 LT  (UTC +5),KOCHI,KOCHI,Not in Transit
11,ROSE,ARRIVAL,Port,TUTICORIN,2019-04-01 06:31 LT  (UTC +5),VIZHINJAM,TUTICORIN ANCH,Not in Transit
12,NICKIE B,ARRIVAL,Port,TUTICORIN,2019-04-01 03:36 LT  (UTC +5),COLOMBO,TUTICORIN ANCH,Not in Transit
13,CAPE NEMO,DEPARTURE,Port,TUTICORIN,2019-04-01 03:09 LT  (UTC +5),-,-,Not in Transit
14,YUE YOU 901,DEPARTURE,Port,TUTICORIN,2019-04-01 00:45 LT  (UTC +5),-,-,Not in Transit
15,VB PROGRESS,ARRIVAL,Port,TUTICORIN,2019-03-31 20:02 LT  (UTC +5),TUTICORIN,TUTICORIN,Not in Transit
16,NALA COMMANDER,DEPARTURE,Port,TUTICORIN,2019-03-31 19:59 LT  (UTC +5),-,-,Not in Transit
17,GANTA BHUM,DEPARTURE,Port,TUTICORIN,2019-03-31 16:05 LT  (UTC +5),-,-,Not in Transit
18,APJ KAIS,DEPARTURE,Port,TUTICORIN,2019-03-31 12:46 LT  (UTC +5),-,-,Not in Transit
19,SAM FISHING BOAT,ARRIVAL,Port,TUTICORIN,2019-03-31 08:00 LT  (UTC +5),-,-,Not in Transit
0,OCEAN TIANBO,ARRIVAL,Port,TUTICORIN,2019-03-31 02:52 LT  (UTC +5),CHENNAI,TUTICORIN ANCH,Not in Transit
1,GANTA BHUM,ARRIVAL,Port,TUTICORIN,2019-03-31 01:43 LT  (UTC +5),COLOMBO,COLOMBO,Not in Transit
2,RED FIN,DEPARTURE,Port,TUTICORIN,2019-03-31 00:08 LT  (UTC +5),-,-,Not in Transit
3,BBC GANGES,DEPARTURE,Port,TUTICORIN,2019-03-30 23:13 LT  (UTC +5),-,-,Not in Transit
4,NIUMATH II,DEPARTURE,Port,TUTICORIN,2019-03-30 22:54 LT  (UTC +5),-,-,Not in Transit
5,MSV.DAULAH.1,ARRIVAL,Port,TUTICORIN,2019-03-30 20:38 LT  (UTC +5),TUTICORIN,TUTICORIN,Not in Transit
6,CAPE NEMO,ARRIVAL,Port,TUTICORIN,2019-03-30 12:25 LT  (UTC +5),COLOMBO,COLOMBO,Not in Transit
7,TCI VIJAY,DEPARTURE,Port,TUTICORIN,2019-03-30 11:56 LT  (UTC +5),-,-,Not in Transit
8,WARSHIP CG244,DEPARTURE,Port,TUTICORIN,2019-03-30 07:58 LT  (UTC +5),-,-,Not in Transit
9,TCI VIJAY,ARRIVAL,Port,TUTICORIN,2019-03-30 06:54 LT  (UTC +5),MUNDRA,MUNDRA,Not in Transit
10,MSV.JM SEALINE,DEPARTURE,Port,TUTICORIN,2019-03-30 06:50 LT  (UTC +5),-,-,Not in Transit
