,Vessel Name,Port Call Type,Port Type,Current Port,Ata/atd,Voyage origin port,Leg start Port/anch,In Transit Port calls
0,SL SHIPBUILDING CONTRACTOR 166,DEPARTURE,Anchorage,SIKKA ANCH,2019-04-01 15:21 LT  (UTC +5),-,-,Not in Transit
1,MARITIME POLARIS,DEPARTURE,Anchorage,SIKKA ANCH,2019-04-01 15:10 LT  (UTC +5),-,-,Not in Transit
2,SL SHIPBUILDING CONTRACTOR 166,ARRIVAL,Anchorage,SIKKA ANCH,2019-04-01 15:08 LT  (UTC +5),SIKKA,SIKKA,Not in Transit
3,STI EXCEL,ARRIVAL,Anchorage,SIKKA ANCH,2019-04-01 14:23 LT  (UTC +5),SIKKA,SIKKA,Not in Transit
4,GULF ESPRIT,ARRIVAL,Anchorage,SIKKA ANCH,2019-04-01 10:26 LT  (UTC +5),SIKKA,SIKKA,Not in Transit
5,MARITIME EQUATOR,ARRIVAL,Anchorage,SIKKA ANCH,2019-04-01 09:36 LT  (UTC +5),MUMBAI,MUMBAI,Not in Transit
6,BREEZY VICTORIA,DEPARTURE,Anchorage,SIKKA ANCH,2019-04-01 09:34 LT  (UTC +5),-,-,Not in Transit
7,DESIMI,ARRIVAL,Anchorage,SIKKA ANCH,2019-04-01 08:07 LT  (UTC +5),GOLA,GOLA,Not in Transit
8,BUNGA ANGELICA,DEPARTURE,Anchorage,SIKKA ANCH,2019-04-01 08:06 LT  (UTC +5),-,-,Not in Transit
9,UACC IBN AL ATHEER,DEPARTURE,Anchorage,SIKKA ANCH,2019-04-01 03:23 LT  (UTC +5),-,-,Not in Transit
10,JAG PAHEL,ARRIVAL,Anchorage,SIKKA ANCH,2019-04-01 01:05 LT  (UTC +5),ENNORE,ENNORE,Not in Transit
11,ABU DHABI III,ARRIVAL,Anchorage,SIKKA ANCH,2019-04-01 00:20 LT  (UTC +5),PASIR GUDANG,PASIR GUDANG,Not in Transit
12,MARITIME POLARIS,ARRIVAL,Anchorage,SIKKA ANCH,2019-04-01 00:06 LT  (UTC +5),DAHEJ,DAHEJ,Not in Transit
13,SANMAR SOPRANO,ARRIVAL,Anchorage,SIKKA ANCH,2019-03-31 22:07 LT  (UTC +5),ENNORE,KOLKATA ANCH,Not in Transit
14,SL SHIPBUILDING CONTRACTOR 166,DEPARTURE,Anchorage,SIKKA ANCH,2019-03-31 18:59 LT  (UTC +5),-,-,Not in Transit
15,TIVOLI PARK,ARRIVAL,Anchorage,SIKKA ANCH,2019-03-31 18:42 LT  (UTC +5),MUNDRA,MUNDRA,Not in Transit
16,SL SHIPBUILDING CONTRACTOR 166,ARRIVAL,Anchorage,SIKKA ANCH,2019-03-31 16:31 LT  (UTC +5),SIKKA,SIKKA,Not in Transit
17,SEASTAR,ARRIVAL,Anchorage,SIKKA ANCH,2019-03-31 13:16 LT  (UTC +5),MUNDRA,MUNDRA,Not in Transit
18,IWATESAN,DEPARTURE,Anchorage,SIKKA ANCH,2019-03-31 08:59 LT  (UTC +5),-,-,Not in Transit
19,SL SHIPBUILDING CONTRACTOR 166,DEPARTURE,Anchorage,SIKKA ANCH,2019-03-31 08:00 LT  (UTC +5),-,-,Not in Transit
0,ABQAIQ,DEPARTURE,Anchorage,SIKKA ANCH,2019-03-31 07:18 LT  (UTC +5),-,-,Not in Transit
1,SL SHIPBUILDING CONTRACTOR 166,ARRIVAL,Anchorage,SIKKA ANCH,2019-03-31 06:56 LT  (UTC +5),SIKKA,SIKKA,Not in Transit
2,BW KRONBORG,DEPARTURE,Anchorage,SIKKA ANCH,2019-03-31 06:40 LT  (UTC +5),-,-,Not in Transit
3,ORANGE STARS,DEPARTURE,Anchorage,SIKKA ANCH,2019-03-31 05:47 LT  (UTC +5),-,-,Not in Transit
4,PACIFIC SARAH,DEPARTURE,Anchorage,SIKKA ANCH,2019-03-31 04:06 LT  (UTC +5),-,-,Not in Transit
5,GULF ESPRIT,DEPARTURE,Anchorage,SIKKA ANCH,2019-03-31 02:29 LT  (UTC +5),-,-,Not in Transit
6,MARLIN APATITE,ARRIVAL,Anchorage,SIKKA ANCH,2019-03-30 22:05 LT  (UTC +5),PORT MORESBY,SINGAPORE ANCH,Not in Transit
7,SL SHIPBUILDING CONTRACTOR 166,DEPARTURE,Anchorage,SIKKA ANCH,2019-03-30 17:42 LT  (UTC +5),-,-,Not in Transit
8,ORANGE STARS,ARRIVAL,Anchorage,SIKKA ANCH,2019-03-30 15:33 LT  (UTC +5),MERSIN,SUEZ SOUTH ANCH,Not in Transit
9,SL SHIPBUILDING CONTRACTOR 166,ARRIVAL,Anchorage,SIKKA ANCH,2019-03-30 15:08 LT  (UTC +5),SIKKA,SIKKA,Not in Transit
10,CHALLENGE PHOENIX,DEPARTURE,Anchorage,SIKKA ANCH,2019-03-30 14:03 LT  (UTC +5),-,-,Not in Transit
11,BLUEBIRD,ARRIVAL,Anchorage,SIKKA ANCH,2019-03-30 13:51 LT  (UTC +5),SAN NICOLAS,PORT VICTORIA ANCH,Not in Transit
12,BW KALLANG,DEPARTURE,Anchorage,SIKKA ANCH,2019-03-30 13:15 LT  (UTC +5),-,-,Not in Transit
13,PACIFIC SARAH,ARRIVAL,Anchorage,SIKKA ANCH,2019-03-30 10:33 LT  (UTC +5),SIKKA,SIKKA,Not in Transit
14,TORM ISMINI,DEPARTURE,Anchorage,SIKKA ANCH,2019-03-30 07:14 LT  (UTC +5),-,-,Not in Transit
15,STI EXCEL,DEPARTURE,Anchorage,SIKKA ANCH,2019-03-30 05:33 LT  (UTC +5),-,-,Not in Transit
