,Vessel Name,Port Call Type,Port Type,Current Port,Ata/atd,Voyage origin port,Leg start Port/anch,In Transit Port calls
0,CG12,DEPARTURE,Port,PORBANDAR,2019-04-01 10:41 LT  (UTC +5),-,-,Not in Transit
1,OMKARA PREM,DEPARTURE,Port,PORBANDAR,2019-04-01 09:40 LT  (UTC +5),-,-,Not in Transit
2,SEVEN STAR IV,DEPARTURE,Port,PORBANDAR,2019-04-01 08:59 LT  (UTC +5),-,-,Not in Transit
3,OMKARA PREM,ARRIVAL,Port,PORBANDAR,2019-04-01 07:29 LT  (UTC +5),PORBANDAR,PORBANDAR,Not in Transit
4,OMKARA PREM,DEPARTURE,Port,PORBANDAR,2019-04-01 05:16 LT  (UTC +5),-,-,Not in Transit
5,OMKARA PREM,ARRIVAL,Port,PORBANDAR,2019-04-01 03:26 LT  (UTC +5),PORBANDAR,PORBANDAR,Not in Transit
6,SEVEN STAR IV,ARRIVAL,Port,PORBANDAR,2019-04-01 02:37 LT  (UTC +5),JAIGAD ANCH,JAIGAD ANCH,Not in Transit
7,OMKARA PREM,DEPARTURE,Port,PORBANDAR,2019-04-01 01:27 LT  (UTC +5),-,-,Not in Transit
8,OMKARA PREM,ARRIVAL,Port,PORBANDAR,2019-03-31 23:38 LT  (UTC +5),PORBANDAR,PORBANDAR,Not in Transit
9,OMKARA PREM,DEPARTURE,Port,PORBANDAR,2019-03-31 21:50 LT  (UTC +5),-,-,Not in Transit
10,OMKARA PREM,ARRIVAL,Port,PORBANDAR,2019-03-31 19:51 LT  (UTC +5),PORBANDAR,PORBANDAR,Not in Transit
11,OMKARA PREM,DEPARTURE,Port,PORBANDAR,2019-03-31 18:03 LT  (UTC +5),-,-,Not in Transit
12,OMKARA PREM,ARRIVAL,Port,PORBANDAR,2019-03-31 16:09 LT  (UTC +5),PORBANDAR,PORBANDAR,Not in Transit
13,OMKARA PREM,DEPARTURE,Port,PORBANDAR,2019-03-31 14:00 LT  (UTC +5),-,-,Not in Transit
14,OMKARA PREM,ARRIVAL,Port,PORBANDAR,2019-03-31 11:57 LT  (UTC +5),PORBANDAR,PORBANDAR,Not in Transit
15,GLORY SKY,ARRIVAL,Port,PORBANDAR,2019-03-31 10:40 LT  (UTC +5),COLOMBO,PORBANDAR ANCH,Not in Transit
16,GMB 3,ARRIVAL,Port,PORBANDAR,2019-03-31 10:37 LT  (UTC +5),PORBANDAR,PORBANDAR,Not in Transit
17,GMB 3,DEPARTURE,Port,PORBANDAR,2019-03-31 10:33 LT  (UTC +5),-,-,Not in Transit
18,OMKARA PREM,DEPARTURE,Port,PORBANDAR,2019-03-31 10:06 LT  (UTC +5),-,-,Not in Transit
19,OMKARA PREM,ARRIVAL,Port,PORBANDAR,2019-03-31 08:18 LT  (UTC +5),PORBANDAR,PORBANDAR,Not in Transit
0,OMKARA PREM,DEPARTURE,Port,PORBANDAR,2019-03-31 06:26 LT  (UTC +5),-,-,Not in Transit
1,OMKARA PREM,ARRIVAL,Port,PORBANDAR,2019-03-31 04:33 LT  (UTC +5),PORBANDAR,PORBANDAR,Not in Transit
2,OMKARA PREM,DEPARTURE,Port,PORBANDAR,2019-03-31 02:44 LT  (UTC +5),-,-,Not in Transit
3,OMKARA PREM,ARRIVAL,Port,PORBANDAR,2019-03-31 00:15 LT  (UTC +5),PORBANDAR,PORBANDAR,Not in Transit
4,OMKARA PREM,DEPARTURE,Port,PORBANDAR,2019-03-30 22:24 LT  (UTC +5),-,-,Not in Transit
5,OMKARA PREM,ARRIVAL,Port,PORBANDAR,2019-03-30 20:36 LT  (UTC +5),PORBANDAR,PORBANDAR,Not in Transit
6,OMKARA PREM,DEPARTURE,Port,PORBANDAR,2019-03-30 18:47 LT  (UTC +5),-,-,Not in Transit
7,OMKARA PREM,ARRIVAL,Port,PORBANDAR,2019-03-30 16:47 LT  (UTC +5),PORBANDAR,PORBANDAR,Not in Transit
8,OMKARA PREM,DEPARTURE,Port,PORBANDAR,2019-03-30 14:59 LT  (UTC +5),-,-,Not in Transit
9,OMKARA PREM,ARRIVAL,Port,PORBANDAR,2019-03-30 13:07 LT  (UTC +5),PORBANDAR,PORBANDAR,Not in Transit
10,OMKARA PREM,DEPARTURE,Port,PORBANDAR,2019-03-30 11:13 LT  (UTC +5),-,-,Not in Transit
11,OMKARA PREM,ARRIVAL,Port,PORBANDAR,2019-03-30 09:17 LT  (UTC +5),PORBANDAR,PORBANDAR,Not in Transit
12,OMKARA PREM,DEPARTURE,Port,PORBANDAR,2019-03-30 07:29 LT  (UTC +5),-,-,Not in Transit
13,OMKARA PREM,ARRIVAL,Port,PORBANDAR,2019-03-30 05:47 LT  (UTC +5),PORBANDAR,PORBANDAR,Not in Transit
