,Vessel Name,Port Call Type,Port Type,Current Port,Ata/atd,Voyage origin port,Leg start Port/anch,In Transit Port calls
0,OCEAN LAUREL,ARRIVAL,Port,KRISHNAPATNAM,2019-03-30 06:46 LT  (UTC +5),KRISHNAPATNAM,KRISHNAPATNAM,Not in Transit
1,OCEAN LAUREL,DEPARTURE,Port,KRISHNAPATNAM,2019-03-30 06:34 LT  (UTC +5),-,-,Not in Transit
2,MCP LINZ,DEPARTURE,Port,KRISHNAPATNAM,2019-03-30 06:33 LT  (UTC +5),-,-,Not in Transit
3,OCEAN LAUREL,ARRIVAL,Port,KRISHNAPATNAM,2019-03-30 04:01 LT  (UTC +5),KRISHNAPATNAM,KRISHNAPATNAM,Not in Transit
4,OCEAN LAUREL,DEPARTURE,Port,KRISHNAPATNAM,2019-03-30 03:49 LT  (UTC +5),-,-,Not in Transit
5,PANASIATIC,DEPARTURE,Port,KRISHNAPATNAM,2019-03-30 03:49 LT  (UTC +5),-,-,Not in Transit
6,SSL CHENNAI,DEPARTURE,Port,KRISHNAPATNAM,2019-03-29 20:23 LT  (UTC +5),-,-,Not in Transit
7,OCEAN ENVY,ARRIVAL,Port,KRISHNAPATNAM,2019-03-29 18:47 LT  (UTC +5),KRISHNAPATNAM,KRISHNAPATNAM,Not in Transit
8,OCEAN TIARA,ARRIVAL,Port,KRISHNAPATNAM,2019-03-29 18:47 LT  (UTC +5),KRISHNAPATNAM,KRISHNAPATNAM,Not in Transit
9,OCEANIC CRIMSON,ARRIVAL,Port,KRISHNAPATNAM,2019-03-29 18:47 LT  (UTC +5),KAKINADA,KRISHNAPATNAM ANCH,Not in Transit
10,OCEAN ENVY,DEPARTURE,Port,KRISHNAPATNAM,2019-03-29 18:25 LT  (UTC +5),-,-,Not in Transit
11,OCEAN TIARA,DEPARTURE,Port,KRISHNAPATNAM,2019-03-29 18:06 LT  (UTC +5),-,-,Not in Transit
12,HYUNDAI PRESTIGE,ARRIVAL,Port,KRISHNAPATNAM,2019-03-29 15:29 LT  (UTC +5),KATTUPALLI,KRISHNAPATNAM ANCH,Not in Transit
13,OCEAN ENVY,ARRIVAL,Port,KRISHNAPATNAM,2019-03-29 15:29 LT  (UTC +5),KRISHNAPATNAM,KRISHNAPATNAM,Not in Transit
14,OCEAN MONARCH,ARRIVAL,Port,KRISHNAPATNAM,2019-03-29 15:28 LT  (UTC +5),KRISHNAPATNAM,KRISHNAPATNAM,Not in Transit
15,OCEAN LAUREL,ARRIVAL,Port,KRISHNAPATNAM,2019-03-29 14:57 LT  (UTC +5),KRISHNAPATNAM,KRISHNAPATNAM,Not in Transit
16,OCEAN MONARCH,DEPARTURE,Port,KRISHNAPATNAM,2019-03-29 14:57 LT  (UTC +5),-,-,Not in Transit
17,OCEAN TIARA,ARRIVAL,Port,KRISHNAPATNAM,2019-03-29 14:57 LT  (UTC +5),KRISHNAPATNAM,KRISHNAPATNAM,Not in Transit
18,MCP LINZ,ARRIVAL,Port,KRISHNAPATNAM,2019-03-29 14:56 LT  (UTC +5),KOLKATA,KRISHNAPATNAM ANCH,Not in Transit
19,OCEAN TIARA,DEPARTURE,Port,KRISHNAPATNAM,2019-03-29 14:38 LT  (UTC +5),-,-,Not in Transit
0,VLADIVOSTOK,DEPARTURE,Port,KRISHNAPATNAM,2019-03-29 14:37 LT  (UTC +5),-,-,Not in Transit
1,OCEAN ENVY,DEPARTURE,Port,KRISHNAPATNAM,2019-03-29 14:37 LT  (UTC +5),-,-,Not in Transit
2,OCEAN LAUREL,DEPARTURE,Port,KRISHNAPATNAM,2019-03-29 14:07 LT  (UTC +5),-,-,Not in Transit
3,SPITHA,DEPARTURE,Port,KRISHNAPATNAM,2019-03-29 13:40 LT  (UTC +5),-,-,Not in Transit
4,HONG HAI 6,ARRIVAL,Port,KRISHNAPATNAM,2019-03-29 10:01 LT  (UTC +5),KANDLA,SINGAPORE ANCH,Not in Transit
5,OCEAN LAUREL,ARRIVAL,Port,KRISHNAPATNAM,2019-03-29 10:01 LT  (UTC +5),KRISHNAPATNAM ANCH,KRISHNAPATNAM ANCH,Not in Transit
6,OCEAN TIARA,ARRIVAL,Port,KRISHNAPATNAM,2019-03-29 10:00 LT  (UTC +5),KRISHNAPATNAM,KRISHNAPATNAM,Not in Transit
7,OCEAN TIARA,DEPARTURE,Port,KRISHNAPATNAM,2019-03-29 09:50 LT  (UTC +5),-,-,Not in Transit
8,OCEAN LAUREL,DEPARTURE,Port,KRISHNAPATNAM,2019-03-29 09:08 LT  (UTC +5),-,-,Not in Transit
9,OCEAN ENVY,ARRIVAL,Port,KRISHNAPATNAM,2019-03-29 03:29 LT  (UTC +5),KRISHNAPATNAM,KRISHNAPATNAM,Not in Transit
10,ATHANASSIOS G.O.,DEPARTURE,Port,KRISHNAPATNAM,2019-03-29 03:16 LT  (UTC +5),-,-,Not in Transit
11,OCEAN ENVY,DEPARTURE,Port,KRISHNAPATNAM,2019-03-29 03:16 LT  (UTC +5),-,-,Not in Transit
12,OCEAN TIARA,ARRIVAL,Port,KRISHNAPATNAM,2019-03-29 02:07 LT  (UTC +5),KRISHNAPATNAM,KRISHNAPATNAM,Not in Transit
13,VLADIVOSTOK,ARRIVAL,Port,KRISHNAPATNAM,2019-03-29 02:07 LT  (UTC +5),VISAKHAPATNAM,KRISHNAPATNAM ANCH,Not in Transit
14,OCEAN LAUREL,ARRIVAL,Port,KRISHNAPATNAM,2019-03-29 02:06 LT  (UTC +5),KRISHNAPATNAM,KRISHNAPATNAM,Not in Transit
15,OCEAN LAUREL,DEPARTURE,Port,KRISHNAPATNAM,2019-03-29 01:50 LT  (UTC +5),-,-,Not in Transit
16,OCEAN ENVY,ARRIVAL,Port,KRISHNAPATNAM,2019-03-29 01:34 LT  (UTC +5),KRISHNAPATNAM,KRISHNAPATNAM,Not in Transit
17,OCEAN ENVY,DEPARTURE,Port,KRISHNAPATNAM,2019-03-29 01:28 LT  (UTC +5),-,-,Not in Transit
18,SSL VISAKHAPATNAM,DEPARTURE,Port,KRISHNAPATNAM,2019-03-29 01:24 LT  (UTC +5),-,-,Not in Transit
19,OCEAN TIARA,DEPARTURE,Port,KRISHNAPATNAM,2019-03-29 01:18 LT  (UTC +5),-,-,Not in Transit
0,OCEAN LAUREL,ARRIVAL,Port,KRISHNAPATNAM,2019-03-28 23:25 LT  (UTC +5),KRISHNAPATNAM,KRISHNAPATNAM,Not in Transit
1,OCEAN LAUREL,DEPARTURE,Port,KRISHNAPATNAM,2019-03-28 23:18 LT  (UTC +5),-,-,Not in Transit
2,MCP SALZBURG,DEPARTURE,Port,KRISHNAPATNAM,2019-03-28 22:26 LT  (UTC +5),-,-,Not in Transit
3,OCEAN LAUREL,ARRIVAL,Port,KRISHNAPATNAM,2019-03-28 21:06 LT  (UTC +5),KRISHNAPATNAM,KRISHNAPATNAM,Not in Transit
4,SSL CHENNAI,ARRIVAL,Port,KRISHNAPATNAM,2019-03-28 21:06 LT  (UTC +5),KOLKATA,KRISHNAPATNAM ANCH,Not in Transit
5,OCEAN TIARA,ARRIVAL,Port,KRISHNAPATNAM,2019-03-28 21:06 LT  (UTC +5),KRISHNAPATNAM,KRISHNAPATNAM,Not in Transit
6,OCEAN LAUREL,DEPARTURE,Port,KRISHNAPATNAM,2019-03-28 20:22 LT  (UTC +5),-,-,Not in Transit
7,OCEAN TIARA,DEPARTURE,Port,KRISHNAPATNAM,2019-03-28 20:18 LT  (UTC +5),-,-,Not in Transit
8,SSL SABARIMALAI,DEPARTURE,Port,KRISHNAPATNAM,2019-03-28 20:17 LT  (UTC +5),-,-,Not in Transit
9,DECCAN PRIDE,ARRIVAL,Port,KRISHNAPATNAM,2019-03-28 19:06 LT  (UTC +5),PARADIP,PARADIP,Not in Transit
10,OCEAN ENVY,ARRIVAL,Port,KRISHNAPATNAM,2019-03-28 19:05 LT  (UTC +5),KRISHNAPATNAM,KRISHNAPATNAM,Not in Transit
11,OCEAN MONARCH,ARRIVAL,Port,KRISHNAPATNAM,2019-03-28 19:04 LT  (UTC +5),KRISHNAPATNAM,KRISHNAPATNAM,Not in Transit
12,OCEAN MONARCH,DEPARTURE,Port,KRISHNAPATNAM,2019-03-28 18:35 LT  (UTC +5),-,-,Not in Transit
13,EXCELLENT PESCADORES,ARRIVAL,Port,KRISHNAPATNAM,2019-03-28 18:10 LT  (UTC +5),CHENNAI,CHENNAI,Not in Transit
14,OCEAN LAUREL,ARRIVAL,Port,KRISHNAPATNAM,2019-03-28 18:09 LT  (UTC +5),KRISHNAPATNAM,KRISHNAPATNAM,Not in Transit
15,OCEAN TIARA,ARRIVAL,Port,KRISHNAPATNAM,2019-03-28 18:09 LT  (UTC +5),KRISHNAPATNAM,KRISHNAPATNAM,Not in Transit
16,OCEAN TIARA,DEPARTURE,Port,KRISHNAPATNAM,2019-03-28 17:57 LT  (UTC +5),-,-,Not in Transit
17,OCEAN LAUREL,DEPARTURE,Port,KRISHNAPATNAM,2019-03-28 17:56 LT  (UTC +5),-,-,In Transit
18,OCEAN LAUREL,ARRIVAL,Port,KRISHNAPATNAM,2019-03-28 17:30 LT  (UTC +5),KRISHNAPATNAM,KRISHNAPATNAM,In Transit
19,OCEAN ENVY,DEPARTURE,Port,KRISHNAPATNAM,2019-03-28 17:26 LT  (UTC +5),-,-,Not in Transit
0,VELA,DEPARTURE,Port,KRISHNAPATNAM,2019-03-28 17:20 LT  (UTC +5),-,-,Not in Transit
1,OCEAN LAUREL,DEPARTURE,Port,KRISHNAPATNAM,2019-03-28 17:20 LT  (UTC +5),-,-,Not in Transit
2,APOLLON,DEPARTURE,Port,KRISHNAPATNAM,2019-03-28 13:01 LT  (UTC +5),-,-,Not in Transit
3,OCEAN MONARCH,ARRIVAL,Port,KRISHNAPATNAM,2019-03-28 08:13 LT  (UTC +5),KRISHNAPATNAM,KRISHNAPATNAM,Not in Transit
4,OCEAN ENVY,ARRIVAL,Port,KRISHNAPATNAM,2019-03-28 08:12 LT  (UTC +5),KRISHNAPATNAM,KRISHNAPATNAM,Not in Transit
5,SSL VISAKHAPATNAM,ARRIVAL,Port,KRISHNAPATNAM,2019-03-28 08:12 LT  (UTC +5),HALDIA,KRISHNAPATNAM ANCH,Not in Transit
6,OCEAN MONARCH,DEPARTURE,Port,KRISHNAPATNAM,2019-03-28 07:52 LT  (UTC +5),-,-,Not in Transit
7,OCEAN ENVY,DEPARTURE,Port,KRISHNAPATNAM,2019-03-28 07:39 LT  (UTC +5),-,-,Not in Transit
8,KAPITAN MASLOV,DEPARTURE,Port,KRISHNAPATNAM,2019-03-28 07:37 LT  (UTC +5),-,-,Not in Transit
