,Vessel Name,Port Call Type,Port Type,Current Port,Ata/atd,Voyage origin port,Leg start Port/anch,In Transit Port calls
0,ORIENTAL MARGUERITE,ARRIVAL,Port,KANDLA,2019-03-29 17:31 LT  (UTC +5),HAMRIYA,KANDLA ANCH,Not in Transit
1,AYSAN,ARRIVAL,Port,KANDLA,2019-03-29 17:28 LT  (UTC +5),CHABAHAR,KANDLA ANCH,Not in Transit
2,ARTAM,DEPARTURE,Port,KANDLA,2019-03-29 16:44 LT  (UTC +5),-,-,Not in Transit
3,DAE WON,DEPARTURE,Port,KANDLA,2019-03-29 16:25 LT  (UTC +5),-,-,Not in Transit
4,GRAVITY,ARRIVAL,Port,KANDLA,2019-03-29 16:01 LT  (UTC +5),MUNDRA,KANDLA ANCH,Not in Transit
5,MIHO,ARRIVAL,Port,KANDLA,2019-03-29 14:05 LT  (UTC +5),MUMBAI,KANDLA ANCH,Not in Transit
6,SEAPOL PEARL,DEPARTURE,Port,KANDLA,2019-03-29 10:42 LT  (UTC +5),-,-,In Transit
7,POYANG,ARRIVAL,Port,KANDLA,2019-03-29 08:36 LT  (UTC +5),MUMBAI,MUMBAI,Not in Transit
8,JAG PRAKASH,DEPARTURE,Port,KANDLA,2019-03-29 06:15 LT  (UTC +5),-,-,Not in Transit
9,SEASTAR,ARRIVAL,Port,KANDLA,2019-03-29 05:23 LT  (UTC +5),HAZIRA,KANDLA ANCH,Not in Transit
10,OLYMPIC PEGASUS,DEPARTURE,Port,KANDLA,2019-03-29 04:20 LT  (UTC +5),-,-,Not in Transit
11,RAINBOW ISLAND 88,DEPARTURE,Port,KANDLA,2019-03-29 03:55 LT  (UTC +5),-,-,Not in Transit
12,SUCCESS GLORY,DEPARTURE,Port,KANDLA,2019-03-28 23:54 LT  (UTC +5),-,-,Not in Transit
13,OCEAN LANCER,ARRIVAL,Port,KANDLA,2019-03-28 23:16 LT  (UTC +5),VADINAR,VADINAR,Not in Transit
14,SSL GUJARAT,DEPARTURE,Port,KANDLA,2019-03-28 21:53 LT  (UTC +5),-,-,Not in Transit
15,IONIC,DEPARTURE,Port,KANDLA,2019-03-28 19:04 LT  (UTC +5),-,-,Not in Transit
16,GUJ LAXMI,DEPARTURE,Port,KANDLA,2019-03-28 18:58 LT  (UTC +5),-,-,In Transit
17,SEAPOL PEARL,ARRIVAL,Port,KANDLA,2019-03-28 16:28 LT  (UTC +5),KANDLA ANCH,KANDLA ANCH,In Transit
18,PARNIA,ARRIVAL,Port,KANDLA,2019-03-28 16:18 LT  (UTC +5),BEIRUT,KANDLA ANCH,Not in Transit
19,BW RADON,DEPARTURE,Port,KANDLA,2019-03-28 15:37 LT  (UTC +5),-,-,Not in Transit
0,SEA PROSPERITY,DEPARTURE,Port,KANDLA,2019-03-28 15:16 LT  (UTC +5),-,-,Not in Transit
1,VAILANKANNI,ARRIVAL,Port,KANDLA,2019-03-28 12:47 LT  (UTC +5),SIKKA,SIKKA ANCH,Not in Transit
2,QIAN KUN,ARRIVAL,Port,KANDLA,2019-03-28 12:30 LT  (UTC +5),MUMBAI,KANDLA ANCH,Not in Transit
3,SUCCESS GLORY,ARRIVAL,Port,KANDLA,2019-03-28 12:14 LT  (UTC +5),KANDLA,KANDLA,Not in Transit
4,VEER GANANAYAK,ARRIVAL,Port,KANDLA,2019-03-28 10:14 LT  (UTC +5),KANDLA,KANDLA,Not in Transit
5,IKAN PELATA,DEPARTURE,Port,KANDLA,2019-03-28 10:10 LT  (UTC +5),-,-,Not in Transit
6,MUC LAXMI,ARRIVAL,Port,KANDLA,2019-03-28 08:08 LT  (UTC +5),KANDLA,KANDLA,Not in Transit
7,LORD MOUNTBATTEN,ARRIVAL,Port,KANDLA,2019-03-28 08:02 LT  (UTC +5),DURBAN,KANDLA ANCH,Not in Transit
8,VEER GANANAYAK,DEPARTURE,Port,KANDLA,2019-03-28 07:10 LT  (UTC +5),-,-,In Transit
9,WAWASAN TOPAZ,DEPARTURE,Port,KANDLA,2019-03-28 07:01 LT  (UTC +5),-,-,Not in Transit
10,QATAR SPIRIT,DEPARTURE,Port,KANDLA,2019-03-28 06:55 LT  (UTC +5),-,-,Not in Transit
11,EXPLORINDO 1,ARRIVAL,Port,KANDLA,2019-03-28 06:31 LT  (UTC +5),NHAVA SHEVA,KANDLA ANCH,Not in Transit
12,GUJ LAXMI,ARRIVAL,Port,KANDLA,2019-03-28 06:14 LT  (UTC +5),-,-,In Transit
13,ARTAM,ARRIVAL,Port,KANDLA,2019-03-28 04:26 LT  (UTC +5),ZANZIBAR,KANDLA ANCH,Not in Transit
14,IVY,ARRIVAL,Port,KANDLA,2019-03-27 21:36 LT  (UTC +5),GHOGHA,KANDLA ANCH,Not in Transit
15,SSL GUJARAT,ARRIVAL,Port,KANDLA,2019-03-27 21:36 LT  (UTC +5),TUTICORIN,KANDLA ANCH,Not in Transit
16,HAN YI,ARRIVAL,Port,KANDLA,2019-03-27 21:16 LT  (UTC +5),MASAN,SINGAPORE ANCH,Not in Transit
17,SUCCESS GLORY,DEPARTURE,Port,KANDLA,2019-03-27 19:28 LT  (UTC +5),-,-,Not in Transit
18,VIL BALTIC,ARRIVAL,Port,KANDLA,2019-03-27 19:13 LT  (UTC +5),MUARA BERAU ,KANDLA ANCH,Not in Transit
19,BW RADON,ARRIVAL,Port,KANDLA,2019-03-27 18:32 LT  (UTC +5),MUMBAI ANCH,MUMBAI ANCH,Not in Transit
0,RISHI VI,ARRIVAL,Port,KANDLA,2019-03-27 17:36 LT  (UTC +5),KANDLA ANCH,KANDLA ANCH,Not in Transit
1,DAE WON,ARRIVAL,Port,KANDLA,2019-03-27 17:35 LT  (UTC +5),KARACHI,KANDLA ANCH,Not in Transit
2,K.B.IV,ARRIVAL,Port,KANDLA,2019-03-27 16:58 LT  (UTC +5),KANDLA,KANDLA,Not in Transit
3,JAG PRAKASH,ARRIVAL,Port,KANDLA,2019-03-27 16:16 LT  (UTC +5),NHAVA SHEVA,KANDLA ANCH,Not in Transit
4,IGLC ANKA,DEPARTURE,Port,KANDLA,2019-03-27 16:12 LT  (UTC +5),-,-,Not in Transit
5,CETUS STAR,DEPARTURE,Port,KANDLA,2019-03-27 15:25 LT  (UTC +5),-,-,Not in Transit
6,CHANDRA NEPTUNE,ARRIVAL,Port,KANDLA,2019-03-27 15:02 LT  (UTC +5),MUMBAI ANCH,MUMBAI ANCH,Not in Transit
7,PORT KLANG,DEPARTURE,Port,KANDLA,2019-03-27 14:34 LT  (UTC +5),-,-,Not in Transit
8,RISHI III,ARRIVAL,Port,KANDLA,2019-03-27 11:41 LT  (UTC +5),KANDLA,KANDLA,Not in Transit
9,VEER GANANAYAK,ARRIVAL,Port,KANDLA,2019-03-27 10:23 LT  (UTC +5),KANDLA,KANDLA,In Transit
10,RISHI III,DEPARTURE,Port,KANDLA,2019-03-27 10:18 LT  (UTC +5),-,-,Not in Transit
11,DA XIN,ARRIVAL,Port,KANDLA,2019-03-27 08:34 LT  (UTC +5),ZHUHAI,KANDLA ANCH,Not in Transit
12,VEER GANANAYAK,DEPARTURE,Port,KANDLA,2019-03-27 07:51 LT  (UTC +5),-,-,Not in Transit
13,RONAK,ARRIVAL,Port,KANDLA,2019-03-27 06:05 LT  (UTC +5),KANDLA ANCH,KANDLA ANCH,Not in Transit
14,CHEM TIGER,DEPARTURE,Port,KANDLA,2019-03-27 06:03 LT  (UTC +5),-,-,Not in Transit
15,VOLVOX ASIA,DEPARTURE,Port,KANDLA,2019-03-27 05:53 LT  (UTC +5),-,-,Not in Transit
16,RAINBOW ISLAND 88,ARRIVAL,Port,KANDLA,2019-03-27 05:17 LT  (UTC +5),TAMAN,KANDLA ANCH,Not in Transit
17,VOLVOX ASIA,ARRIVAL,Port,KANDLA,2019-03-27 05:08 LT  (UTC +5),KANDLA,KANDLA,Not in Transit
18,JAYRAM IV,ARRIVAL,Port,KANDLA,2019-03-27 05:05 LT  (UTC +5),KANDLA ANCH,KANDLA ANCH,Not in Transit
