,Vessel Name,Port Call Type,Port Type,Current Port,Ata/atd,Voyage origin port,Leg start Port/anch,In Transit Port calls
0,VINAYAGAR THUNAI1,ARRIVAL,Port,CHENNAI,2019-04-01 17:30 LT  (UTC +5),CHENNAI,CHENNAI,Not in Transit
1,VINAYAGAR THUNAI2,ARRIVAL,Port,CHENNAI,2019-04-01 17:29 LT  (UTC +5),CHENNAI,CHENNAI,Not in Transit
2,CMA CGM RABELAIS,ARRIVAL,Port,CHENNAI,2019-04-01 13:59 LT  (UTC +5),BEIRUT,BEIRUT,Not in Transit
3,CMA CGM RABELAIS,DEPARTURE,Port,CHENNAI,2019-04-01 13:32 LT  (UTC +5),-,-,Not in Transit
4,T308,ARRIVAL,Port,CHENNAI,2019-04-01 10:40 LT  (UTC +5),CHENNAI,CHENNAI,Not in Transit
5,AUSTRALIAN WARSHIP,DEPARTURE,Port,CHENNAI,2019-04-01 10:30 LT  (UTC +5),-,-,Not in Transit
6,T308,DEPARTURE,Port,CHENNAI,2019-04-01 10:27 LT  (UTC +5),-,-,Not in Transit
7,T308,ARRIVAL,Port,CHENNAI,2019-04-01 10:10 LT  (UTC +5),CHENNAI,CHENNAI,Not in Transit
8,AUSTRALIAN WARSHIP,DEPARTURE,Port,CHENNAI,2019-04-01 09:58 LT  (UTC +5),-,-,Not in Transit
9,T308,DEPARTURE,Port,CHENNAI,2019-04-01 09:55 LT  (UTC +5),-,-,Not in Transit
10,KUPPAN,ARRIVAL,Port,CHENNAI,2019-04-01 01:15 LT  (UTC +5),CHENNAI,CHENNAI,Not in Transit
11,TCI SURYA,DEPARTURE,Port,CHENNAI,2019-03-31 22:21 LT  (UTC +5),-,-,Not in Transit
12,BHAGAVATHI NET 3,DEPARTURE,Port,CHENNAI,2019-03-31 18:54 LT  (UTC +5),-,-,Not in Transit
13,MORNING CLAIRE,ARRIVAL,Port,CHENNAI,2019-03-31 16:37 LT  (UTC +5),HAMBANTOTA,HAMBANTOTA,Not in Transit
14,D N D,ARRIVAL,Port,CHENNAI,2019-03-31 15:48 LT  (UTC +5),CHENNAI,CHENNAI,Not in Transit
15,SEASPAN FRASER,DEPARTURE,Port,CHENNAI,2019-03-31 15:43 LT  (UTC +5),-,-,Not in Transit
16,SEA CORAL,ARRIVAL,Port,CHENNAI,2019-03-31 14:10 LT  (UTC +5),PORT KLANG,CHENNAI ANCH,Not in Transit
17,FRANBO PROGRESS,DEPARTURE,Port,CHENNAI,2019-03-31 13:29 LT  (UTC +5),-,-,Not in Transit
18,VAMSEE II,ARRIVAL,Port,CHENNAI,2019-03-31 11:34 LT  (UTC +5),ENNORE,ENNORE,Not in Transit
19,INTREPID REPUBLIC,ARRIVAL,Port,CHENNAI,2019-03-31 10:21 LT  (UTC +5),SIKKA,CHENNAI ANCH,Not in Transit
0,CMA CGM RABELAIS,ARRIVAL,Port,CHENNAI,2019-03-31 08:14 LT  (UTC +5),SINGAPORE,CHENNAI ANCH,Not in Transit
1,OCEAN FAME,ARRIVAL,Port,CHENNAI,2019-03-31 07:57 LT  (UTC +5),CHENNAI,CHENNAI,Not in Transit
2,SENTOSA TRADER,DEPARTURE,Port,CHENNAI,2019-03-31 07:53 LT  (UTC +5),-,-,Not in Transit
3,OCEAN FAME,DEPARTURE,Port,CHENNAI,2019-03-31 07:53 LT  (UTC +5),-,-,Not in Transit
4,MOGRAL,DEPARTURE,Port,CHENNAI,2019-03-31 07:09 LT  (UTC +5),-,-,Not in Transit
5,VAMSEE II,DEPARTURE,Port,CHENNAI,2019-03-31 05:48 LT  (UTC +5),-,-,Not in Transit
6,SEALION APEX,ARRIVAL,Port,CHENNAI,2019-03-31 01:30 LT  (UTC +5),CHENNAI,CHENNAI,Not in Transit
7,CSC CYANITE,ARRIVAL,Port,CHENNAI,2019-03-31 01:25 LT  (UTC +5),CHITTAGONG,CHENNAI ANCH,Not in Transit
8,SEALION APEX,DEPARTURE,Port,CHENNAI,2019-03-31 01:19 LT  (UTC +5),-,-,Not in Transit
9,CMA CGM VERDI,DEPARTURE,Port,CHENNAI,2019-03-31 00:38 LT  (UTC +5),-,-,Not in Transit
10,HAI PHUONG GLORY,DEPARTURE,Port,CHENNAI,2019-03-30 21:30 LT  (UTC +5),-,-,Not in Transit
11,SAMUDRIKA,ARRIVAL,Port,CHENNAI,2019-03-30 18:24 LT  (UTC +5),CHENNAI,CHENNAI,Not in Transit
12,ST.PETER PAUL 5 BOAT,DEPARTURE,Port,CHENNAI,2019-03-30 17:01 LT  (UTC +5),-,-,Not in Transit
13,MATSYA DRUSHTI,ARRIVAL,Port,CHENNAI,2019-03-30 16:38 LT  (UTC +5),CHENNAI ANCH,CHENNAI ANCH,Not in Transit
14,MCP LINZ,ARRIVAL,Port,CHENNAI,2019-03-30 16:09 LT  (UTC +5),KRISHNAPATNAM,KRISHNAPATNAM,Not in Transit
15,NOMADIC HJELLESTAD,DEPARTURE,Port,CHENNAI,2019-03-30 15:58 LT  (UTC +5),-,-,Not in Transit
16,SINDHU SANKALP,ARRIVAL,Port,CHENNAI,2019-03-30 14:43 LT  (UTC +5),KOCHI,CHENNAI ANCH,Not in Transit
17,SENTOSA TRADER,ARRIVAL,Port,CHENNAI,2019-03-30 14:13 LT  (UTC +5),COLOMBO,COLOMBO,Not in Transit
18,DAWN HARIDWAR,DEPARTURE,Port,CHENNAI,2019-03-30 13:58 LT  (UTC +5),-,-,Not in Transit
19,VAMSEE II,ARRIVAL,Port,CHENNAI,2019-03-30 13:54 LT  (UTC +5),ENNORE,ENNORE,Not in Transit
0,SEASPAN FRASER,ARRIVAL,Port,CHENNAI,2019-03-30 11:12 LT  (UTC +5),KATTUPALLI,CHENNAI ANCH,Not in Transit
1,SEALION APEX,ARRIVAL,Port,CHENNAI,2019-03-30 10:07 LT  (UTC +5),CHENNAI,CHENNAI,Not in Transit
2,MOGRAL,ARRIVAL,Port,CHENNAI,2019-03-30 10:07 LT  (UTC +5),COLOMBO,CHENNAI ANCH,Not in Transit
3,MSC ANNAMARIA,DEPARTURE,Port,CHENNAI,2019-03-30 09:44 LT  (UTC +5),-,-,Not in Transit
4,SEALION APEX,DEPARTURE,Port,CHENNAI,2019-03-30 09:42 LT  (UTC +5),-,-,Not in Transit
5,KAMNIK,ARRIVAL,Port,CHENNAI,2019-03-30 08:05 LT  (UTC +5),GWANGYANG,SINGAPORE ANCH,Not in Transit
6,VAMSEE II,DEPARTURE,Port,CHENNAI,2019-03-30 06:41 LT  (UTC +5),-,-,Not in Transit
7,JAFRIN,DEPARTURE,Port,CHENNAI,2019-03-30 06:33 LT  (UTC +5),-,-,Not in Transit
8,CHEMROAD QUEST,DEPARTURE,Port,CHENNAI,2019-03-30 05:36 LT  (UTC +5),-,-,Not in Transit
